Labyrinthe du fichier "ex_labys/laby1.txt": largeur = 10, hauteur = 10
Legende :
 Case pleine : [48;5;137m [0m     Case vide non explorée : [48;5;255m [0m
 Cases explorées :  NOIR : [48;5;242m [0m    GRIS : [48;5;250m [0m    CHEMIN : [48;5;199m [0m
[38;5;0m[48;5;137m [48;5;137m [48;5;137m [48;5;137m [48;5;137m [48;5;137m [48;5;137m [48;5;137m [48;5;137m [48;5;137m [0m
[38;5;0m[48;5;137m [48;5;255m [48;5;255m [48;5;255m [48;5;137m [48;5;255m [48;5;255m [48;5;255m [48;5;255m [48;5;137m [0m
[38;5;0m[48;5;137m [48;5;137m [48;5;137m [48;5;255m [48;5;137m [48;5;255m [48;5;137m [48;5;137m [48;5;255m [48;5;137m [0m
[38;5;0m[48;5;137m [48;5;255m [48;5;255m [48;5;255m [48;5;255m [48;5;255m [48;5;137m [48;5;255m [48;5;255m [48;5;137m [0m
[38;5;0m[48;5;137m [48;5;255m [48;5;137m [48;5;255m [48;5;255m [48;5;255m [48;5;137m [48;5;255m [48;5;255m [48;5;137m [0m
[38;5;0m[48;5;137m [48;5;255m [48;5;137m [48;5;137m [48;5;137m [48;5;137m [48;5;137m [48;5;137m [48;5;255m [48;5;137m [0m
[38;5;0m[48;5;137m [48;5;255m [48;5;137m [48;5;255m [48;5;137m [48;5;255m [48;5;137m [48;5;255m [48;5;255m [48;5;137m [0m
[38;5;0m[48;5;137m [48;5;255m [48;5;255m [48;5;255m [48;5;137m [48;5;255m [48;5;137m [48;5;255m [48;5;137m [48;5;137m [0m
[38;5;0m[48;5;137m [48;5;255m [48;5;137m [48;5;255m [48;5;255m [48;5;255m [48;5;255m [48;5;255m [48;5;255m[38;5;0mX[48;5;137m [0m
[38;5;0m[48;5;137m [48;5;137m [48;5;137m [48;5;137m [48;5;137m [48;5;137m [48;5;137m [48;5;137m [48;5;137m [48;5;137m [0m

Graphe après parcours :
[38;5;0m[48;5;137m [48;5;137m [48;5;137m [48;5;137m [48;5;137m [48;5;137m [48;5;137m [48;5;137m [48;5;137m [48;5;137m [0m
[38;5;0m[48;5;137m [48;5;199m [48;5;199m [48;5;199m [48;5;137m [48;5;199m [48;5;199m [48;5;199m [48;5;199m [48;5;137m [0m
[38;5;0m[48;5;137m [48;5;137m [48;5;137m [48;5;199m [48;5;137m [48;5;199m [48;5;137m [48;5;137m [48;5;199m [48;5;137m [0m
[38;5;0m[48;5;137m [48;5;255m [48;5;250m [48;5;199m [48;5;250m [48;5;199m [48;5;137m [48;5;250m [48;5;199m [48;5;137m [0m
[38;5;0m[48;5;137m [48;5;255m [48;5;137m [48;5;199m [48;5;199m [48;5;199m [48;5;137m [48;5;250m [48;5;199m [48;5;137m [0m
[38;5;0m[48;5;137m [48;5;255m [48;5;137m [48;5;137m [48;5;137m [48;5;137m [48;5;137m [48;5;137m [48;5;199m [48;5;137m [0m
[38;5;0m[48;5;137m [48;5;255m [48;5;137m [48;5;255m [48;5;137m [48;5;255m [48;5;137m [48;5;199m [48;5;199m [48;5;137m [0m
[38;5;0m[48;5;137m [48;5;255m [48;5;255m [48;5;255m [48;5;137m [48;5;255m [48;5;137m [48;5;199m [48;5;137m [48;5;137m [0m
[38;5;0m[48;5;137m [48;5;255m [48;5;137m [48;5;255m [48;5;255m [48;5;255m [48;5;250m [48;5;199m [48;5;199m[38;5;0mX[48;5;137m [0m
[38;5;0m[48;5;137m [48;5;137m [48;5;137m [48;5;137m [48;5;137m [48;5;137m [48;5;137m [48;5;137m [48;5;137m [48;5;137m [0m

Longueur du chemin trouvé : 22
Nombre de sommets explorés : 23
