100
190
1 55
1 80
2 4
2 14
2 85
2 91
3 14
4 58
4 73
5 3
5 5
5 20
5 73
6 23
6 90
7 51
7 84
9 45
9 47
10 94
11 51
11 63
11 67
12 5
12 36
13 35
13 96
14 49
14 56
15 8
15 26
16 7
16 9
16 34
16 44
16 66
17 13
17 59
17 71
18 20
18 45
18 85
19 94
20 1
20 20
21 5
21 10
21 80
22 29
22 69
23 2
23 23
23 94
24 13
24 39
24 45
25 11
25 28
26 63
26 70
27 44
28 9
28 55
28 82
30 31
30 43
30 70
30 75
30 77
31 80
32 29
33 14
34 48
34 80
35 56
36 43
36 77
37 2
37 52
37 79
38 2
38 12
38 51
41 37
41 55
41 78
41 84
42 3
42 13
43 66
43 71
45 78
46 4
46 65
46 78
46 88
47 20
47 72
48 45
48 95
49 67
50 12
50 27
50 67
50 88
50 90
51 52
52 20
53 18
53 22
54 41
55 18
55 52
55 78
55 100
56 48
58 8
59 31
59 35
59 73
59 100
60 10
61 11
61 34
61 52
62 18
62 64
64 48
64 69
64 78
65 98
66 70
67 24
67 28
69 47
70 79
71 43
72 57
73 88
74 34
74 78
74 97
74 100
75 12
75 13
76 3
76 33
76 93
77 67
78 88
78 94
79 48
80 3
80 34
80 41
80 76
81 17
81 46
82 48
82 64
83 28
83 44
83 50
83 62
83 69
84 74
85 36
85 49
85 88
86 28
86 89
87 6
87 75
88 53
89 18
90 61
90 63
91 24
92 38
93 36
93 68
94 31
95 51
96 76
96 97
98 87
99 1
99 24
99 51
100 30
